{ 
  "cols": [ 
    {"id":"","label":"Time","pattern":"","type":"date"}, 
    {"id":"","label":"Avg","pattern":"","type":"number"}, 
 {"id":"","label":"Max","pattern":"","type":"number"}, 
 {"id":"","label":"Min","pattern":"","type":"number"}
  ],
  "rows": [ {"c":[{"v":"Date(2019,07,28,16,51)","f":null},{"v":159.17655172413797,"f":null},{"v":399.0,"f":null},{"v":68.9,"f":null}]}
,
 {"c":[{"v":"Date(2019,07,29,12,00)","f":null},{"v":156.6313793103448,"f":null},{"v":399.0,"f":null},{"v":69.9,"f":null}]}
 ]}